report/picture/paperpicture/identify/success/ccsdswithspw_280ff.vcd
$date
	Sat Jul 13 14:38:57 2024
$end
$version
	GTKWave Analyzer v3.3.66 (w)1999-2015 BSI
$end
$timescale
	1ns
$end
$scope module DUT $end
$var wire 32 " identify_cycle $end
$scope module rtl $end
$scope module ccsds121_top_wrapper_0 $end
$var wire 1 0 ready_ext $end
$var wire 1 4 error $end
$var wire 1 / ready $end
$var wire 32 . dataout[31:0] $end
$var wire 1 + isheaderin $end
$var wire 1 - dataout_newvalid $end
$var wire 1 * eop $end
$upscope $end
$upscope $end
$var wire 1 # identify_sampleclock $end
$scope module rtl $end
$scope module ccsds121_top_wrapper_0 $end
$var wire 1 ) finished $end
$var wire 1 $ fifo_full $end
$upscope $end
$scope module spw_rxlogic_top_0 $end
$scope module rtl $end
$var wire 1 o spw_rx_esc_esc $end
$var wire 1 n spw_rx_parity_error $end
$scope module spw_wrap_top_rtg4 $end
$var wire 1 N tx_or $end
$scope module rtl $end
$scope module u_spw $end
$var wire 1 G rxs_r $end
$upscope $end
$upscope $end
$var wire 16 1 rx_rate[15:0] $end
$upscope $end
$var wire 1 p spw_rx_esc_eep $end
$scope module spw_wrap_top_rtg4 $end
$scope module rtl $end
$scope module u_spw $end
$var wire 1 I txd $end
$scope module rtl $end
$scope module u_spw_tx_flowcontrol $end
$scope module rtl $end
$var wire 7 5 fcts[6:0] $end
$upscope $end
$upscope $end
$upscope $end
$upscope $end
$upscope $end
$upscope $end
$upscope $end
$var wire 1 t rst_n $end
$var wire 1 r rx_data_ready $end
$scope module rtl $end
$scope module spw_wrap_top_rtg4 $end
$scope module rtl $end
$scope module u_spw $end
$var wire 1 H rxd_r $end
$upscope $end
$upscope $end
$upscope $end
$upscope $end
$var wire 8 w rx_data_out[7:0] $end
$scope module rtl $end
$scope module spw_wrap_top_rtg4 $end
$var wire 9 P tx_data[8:0] $end
$upscope $end
$var wire 1 q spw_rx_esc_eop $end
$scope module spw_wrap_top_rtg4 $end
$scope module rtl $end
$scope module u_spw $end
$var wire 1 F txs $end
$upscope $end
$upscope $end
$var wire 1 J disable $end
$upscope $end
$scope module asym_FIFO_inst_0 $end
$var wire 1 k done $end
$upscope $end
$upscope $end
$var wire 1 u ccsds_ready_ext $end
$scope module rtl $end
$scope module spw_wrap_top_rtg4 $end
$var wire 1 Q rx_ir $end
$var wire 1 M tx_ir $end
$scope module rtl $end
$scope module u_spw $end
$scope module rtl $end
$scope module u_spw_tx_flowcontrol $end
$var wire 40 7 rx_enable[39:0] $end
$upscope $end
$upscope $end
$upscope $end
$upscope $end
$var wire 1 K rx_or $end
$upscope $end
$upscope $end
$var wire 32 s fifo_datain[31:0] $end
$scope module rtl $end
$scope module spw_wrap_top_rtg4 $end
$var wire 9 O rx_data[8:0] $end
$upscope $end
$upscope $end
$var wire 1 v rx_data_valid $end
$scope module rtl $end
$scope module spw_wrap_top_rtg4 $end
$scope module rtl $end
$scope module u_spw $end
$scope module rtl $end
$scope module u_spw_tx_flowcontrol $end
$var wire 40 8 fct_received[39:0] $end
$upscope $end
$upscope $end
$upscope $end
$upscope $end
$var wire 8 L tx_time[7:0] $end
$scope module rtl $end
$scope module u_spw $end
$scope module rtl $end
$scope module u_spw_tx_flowcontrol $end
$scope module rtl $end
$var wire 40 6 excess_fcts[39:0] $end
$upscope $end
$upscope $end
$scope module u_spw_rx_flowcredit_x $end
$var wire 9 ? rx_fifo_out_data[8:0] $end
$scope module rtl $end
$var wire 7 ; fct_to_send[7:1] $end
$upscope $end
$upscope $end
$scope module u_spw_rx_to_data $end
$scope module rtl $end
$var wire 40 B rx_fct[39:0] $end
$upscope $end
$var wire 9 D rxd[8:0] $end
$upscope $end
$scope module u_spw_rx_flowcredit_x $end
$var wire 40 > fct_sent[39:0] $end
$upscope $end
$scope module u_spw_ctrl $end
$var wire 40 : link_start[39:0] $end
$upscope $end
$scope module u_spw_rx_to_data $end
$scope module rtl $end
$var wire 40 A rx_nchar[39:0] $end
$upscope $end
$upscope $end
$scope module u_spw_rx_flowcredit_x $end
$var wire 40 < send_fct[39:0] $end
$upscope $end
$scope module u_spw_fifo_2C $end
$var wire 9 ( din[8:0] $end
$var wire 9 E dout[8:0] $end
$upscope $end
$scope module u_spw_ctrl $end
$scope module rtl $end
$var wire 80 3 state[79:0] $end
$upscope $end
$upscope $end
$scope module u_spw_rx_to_data $end
$scope module rtl $end
$var wire 40 @ rx_esc_fct[39:0] $end
$upscope $end
$var wire 40 C fct_received[39:0] $end
$upscope $end
$upscope $end
$upscope $end
$upscope $end
$upscope $end
$scope module asym_FIFO_inst_0 $end
$var wire 8 j data_out_chunk[7:0] $end
$upscope $end
$scope module spw_wrap_top_rtg4 $end
$scope module rtl $end
$scope module u_spw $end
$scope module rtl $end
$scope module u_spw_rx_flowcredit_x $end
$var wire 40 = tx_can_send_fct[39:0] $end
$upscope $end
$scope module u_spw_ctrl $end
$var wire 40 9 link_autostart[39:0] $end
$upscope $end
$upscope $end
$upscope $end
$upscope $end
$upscope $end
$scope module asym_FIFO_inst_0 $end
$var wire 1 l full $end
$upscope $end
$scope module spw_datactrl_fifo $end
$var wire 1 a spw_rx_or $end
$var wire 1 ` spw_tx_con $end
$var wire 1 [ spw_rx_con $end
$var wire 1 Z rx_data_valid $end
$var wire 1 ^ error_out $end
$var wire 1 ] spw_tx_or $end
$var wire 1 X fifo_ack $end
$var wire 8 W ram_data_in[7:0] $end
$var wire 1 V ccsds_ready_ext $end
$var wire 1 \ write_done $end
$var wire 8 Y rx_data_out[7:0] $end
$var wire 1 2 spw_connected $end
$var wire 8 U spw_rx_data[7:0] $end
$var wire 1 T spw_rx_ir $end
$var wire 8 S spw_tx_data[7:0] $end
$scope module rtl $end
$var wire 104 R s_state[103:0] $end
$upscope $end
$upscope $end
$scope module asym_FIFO_inst_0 $end
$var wire 32 m data_in[31:0] $end
$upscope $end
$scope module spw_datactrl_fifo $end
$var wire 1 _ spw_tx_ir $end
$upscope $end
$scope module asym_FIFO_inst_0 $end
$var wire 1 , empty $end
$upscope $end
$upscope $end
$upscope $end
$scope module ccsds123_top_wrapper_0 $end
$var wire 1 % datain_newvalid $end
$upscope $end
$scope module spw_rxlogic_top_0 $end
$scope module rtl $end
$scope module asym_FIFO_inst_0 $end
$scope module arch $end
$var wire 6 d r_pointer[5:0] $end
$upscope $end
$upscope $end
$upscope $end
$upscope $end
$scope module ccsds123_top_wrapper_0 $end
$var wire 1 ' awaitingconfig $end
$upscope $end
$scope module spw_rxlogic_top_0 $end
$scope module rtl $end
$scope module asym_FIFO_inst_0 $end
$var wire 1 h r_update $end
$upscope $end
$upscope $end
$upscope $end
$scope module Debounce_Single_Input_0 $end
$var wire 1 )! rst_n $end
$upscope $end
$scope module spw_rxlogic_top_0 $end
$scope module rtl $end
$scope module asym_FIFO_inst_0 $end
$scope module arch $end
$var wire 6 b w_pointer[5:0] $end
$upscope $end
$upscope $end
$upscope $end
$upscope $end
$scope module Debounce_Single_Input_0 $end
$var wire 1 (! reset_n $end
$var wire 1 &! rst_n_spw $end
$upscope $end
$scope module ccsds123_top_wrapper_0 $end
$var wire 1 y eop $end
$upscope $end
$scope module spw_rxlogic_top_0 $end
$scope module rtl $end
$scope module asym_FIFO_inst_0 $end
$var wire 1 i w_update $end
$upscope $end
$upscope $end
$upscope $end
$scope module ccsds123_top_wrapper_0 $end
$var wire 1 !! error $end
$var wire 1 ~ isheaderout $end
$var wire 1 { fifo_full $end
$upscope $end
$scope module spw_rxlogic_top_0 $end
$scope module rtl $end
$scope module asym_FIFO_inst_0 $end
$scope module arch $end
$var wire 1 c rd_chunk_fin $end
$upscope $end
$upscope $end
$upscope $end
$upscope $end
$scope module ccsds123_top_wrapper_0 $end
$var wire 1 z forcestop $end
$upscope $end
$scope module spw_rxlogic_top_0 $end
$scope module rtl $end
$scope module asym_FIFO_inst_0 $end
$scope module arch $end
$var wire 1 e en_r_update $end
$upscope $end
$upscope $end
$upscope $end
$upscope $end
$scope module ccsds123_top_wrapper_0 $end
$var wire 1 #! finished $end
$scope module beh $end
$var wire 32 x datain_cnt[31:0] $end
$upscope $end
$upscope $end
$scope module spw_rxlogic_top_0 $end
$scope module rtl $end
$scope module asym_FIFO_inst_0 $end
$var wire 1 g ack $end
$upscope $end
$upscope $end
$upscope $end
$scope module ccsds123_top_wrapper_0 $end
$var wire 32 $! dataout[31:0] $end
$var wire 1 } rst_n $end
$var wire 1 "! ready $end
$upscope $end
$scope module Debounce_Single_Input_0 $end
$var wire 1 '! reset_n_spw $end
$upscope $end
$scope module ccsds123_top_wrapper_0 $end
$var wire 6 | nbitsout[5:0] $end
$var wire 8 & datain[7:0] $end
$upscope $end
$scope module spw_rxlogic_top_0 $end
$scope module rtl $end
$scope module asym_FIFO_inst_0 $end
$scope module arch $end
$var wire 56 f chunk_state[55:0] $end
$upscope $end
$upscope $end
$upscope $end
$upscope $end
$scope module Debounce_Single_Input_0 $end
$var wire 1 %! spw_fmc_en $end
$upscope $end
$upscope $end
$upscope $end
$enddefinitions $end
$dumpvars
#0
0X
0g
b110011001100001011011000111001101100101 6
b10 U
b1011001 W
1/
b11111111111111111111111001110010 "
10
b111010001110010011101010110010100100000 7
0*
b1001111111100011 1
12
0\
1V
0K
b1100001000000110000001011001 s
b10 Y
0p
b10010 d
b1110010011001010110000101100100011110010010000000100000001000000010000000100000001000000010000000100000 R
b10 S
b100000010 O
0T
0v
1#
1I
0%
1_
b1100001000000110000001011001 m
b110011001100001011011000111001101100101 8
b0 L
1,
b111111 5
b110011001100001011011000111001101100101 <
0i
1)!
b1100001000000110000001011001 .
0'
0h
b11100101 ?
0)
1t
0y
1(!
b10010 b
b0 ;
b110011001100001011011000111001101100101 B
1&!
1r
b0 x
0{
0~
b100000010 D
0!!
b110011001100001011011000111001101100101 >
0$
0H
0#!
0z
0c
b111010001110010011101010110010100100000 :
b110011001100001011011000111001101100101 A
0e
b10 w
0]
0J
b10 &
1}
0+
b0 $!
04
b100000010 (
0o
b10 P
b1110010011101010110111000100000001000000010000000100000001000000010000000100000 3
1'!
1"!
b11100101 E
0q
b1000 |
b1011001 j
1%!
b1110010011001010110000101100100011110010010000000100000 f
b111010001110010011101010110010100100000 @
b110011001100001011011000111001101100101 C
0n
0F
1M
0a
0-
b111010001110010011101010110010100100000 =
b110011001100001011011000111001101100101 9
0l
0N
0k
0^
1[
1u
0`
0Z
0G
0Q
#10
0#
#20
1#
b11111111111111111111111001110011 "
1G
1F
#30
0#
#40
1#
0I
1H
b11111111111111111111111001110100 "
#50
0#
#60
1#
b11111111111111111111111001110101 "
1I
b110011001100001011011000111001101100101 @
0G
#70
0#
#80
1#
1G
b11111111111111111111111001110110 "
0I
#90
0#
#100
1#
0F
b11111111111111111111111001110111 "
0H
#110
0#
#120
1#
1H
b11111111111111111111111001111000 "
1F
#130
0#
#140
1#
1I
b11111111111111111111111001111001 "
0H
b111010001110010011101010110010100100000 @
#150
0#
#160
1#
0F
0G
b11111111111111111111111001111010 "
#170
0#
#180
1#
b11111111111111111111111001111011 "
1F
1G
#190
0#
#200
1#
b11111111111111111111111001111100 "
0I
1H
#210
0#
#220
1#
b110011001100001011011000111001101100101 @
0G
1I
b11111111111111111111111001111101 "
#230
0#
#240
1#
b11111111111111111111111001111110 "
0I
1G
#250
0#
#260
1#
0H
0F
b11111111111111111111111001111111 "
#270
0#
#280
1#
b11111111111111111111111010000000 "
1F
1H
#290
0#
#300
1#
0H
b111010001110010011101010110010100100000 @
1I
b11111111111111111111111010000001 "
#310
0#
#320
1#
b11111111111111111111111010000010 "
0G
0F
#330
0#
#340
1#
1F
b11111111111111111111111010000011 "
1G
#350
0#
#360
1#
1H
b11111111111111111111111010000100 "
0I
#370
0#
#380
1#
1I
0G
b11111111111111111111111010000101 "
b110011001100001011011000111001101100101 @
#390
0#
#400
1#
0I
b11111111111111111111111010000110 "
1G
#410
0#
#420
1#
0F
b11111111111111111111111010000111 "
0H
#430
0#
#440
1#
1H
b11111111111111111111111010001000 "
1F
#450
0#
#460
1#
b111010001110010011101010110010100100000 @
b11111111111111111111111010001001 "
0H
1I
#470
0#
#480
1#
0G
0F
b11111111111111111111111010001010 "
#490
0#
#500
1#
b11111111111111111111111010001011 "
1G
1F
#510
0#
#520
1#
0I
b11111111111111111111111010001100 "
1H
#530
0#
#540
1#
1I
b11111111111111111111111010001101 "
b110011001100001011011000111001101100101 @
0G
#550
0#
#560
1#
1G
0I
b11111111111111111111111010001110 "
#570
0#
#580
1#
b11111111111111111111111010001111 "
0F
0H
#590
0#
#600
1#
1H
1F
b11111111111111111111111010010000 "
#610
0#
#620
1#
b11111111111111111111111010010001 "
0H
1I
b111010001110010011101010110010100100000 @
#630
0#
#640
1#
0F
b11111111111111111111111010010010 "
0G
#650
0#
#660
1#
1G
1F
b11111111111111111111111010010011 "
#670
0#
#680
1#
b11111111111111111111111010010100 "
1H
0I
#690
0#
#700
1#
1I
b110011001100001011011000111001101100101 @
0G
b11111111111111111111111010010101 "
#710
0#
#720
1#
b11111111111111111111111010010110 "
0I
1G
#730
0#
#740
1#
b11111111111111111111111010010111 "
0F
0H
#750
0#
#760
1#
1H
1F
b11111111111111111111111010011000 "
#770
0#
#780
1#
b11111111111111111111111010011001 "
b111010001110010011101010110010100100000 @
1I
0H
#790
0#
#800
1#
b11111111111111111111111010011010 "
0G
0F
#810
0#
#820
1#
1F
b11111111111111111111111010011011 "
1G
#830
0#
#840
1#
1H
b11111111111111111111111010011100 "
0I
#850
0#
#860
1#
1I
0G
b11111111111111111111111010011101 "
b110011001100001011011000111001101100101 @
#870
0#
#880
1#
0I
b11111111111111111111111010011110 "
1G
#890
0#
#900
1#
0F
b11111111111111111111111010011111 "
0H
#910
0#
#920
1#
1H
b11111111111111111111111010100000 "
1F
#930
0#
#940
1#
b111010001110010011101010110010100100000 @
b11111111111111111111111010100001 "
0H
1I
#950
0#
#960
1#
0F
0G
b11111111111111111111111010100010 "
#970
0#
#980
1#
b11111111111111111111111010100011 "
1F
1G
#990
0#
#1000
1#
0I
b11111111111111111111111010100100 "
1H
#1010
0#
#1020
1#
0G
1I
b11111111111111111111111010100101 "
b110011001100001011011000111001101100101 @
#1030
0#
#1040
1#
1G
b11111111111111111111111010100110 "
0I
#1050
0#
#1060
1#
0H
b11111111111111111111111010100111 "
0F
#1070
0#
#1080
1#
1F
b11111111111111111111111010101000 "
1H
#1090
0#
#1100
1#
0H
1I
b111010001110010011101010110010100100000 @
b11111111111111111111111010101001 "
#1110
0#
#1120
1#
b11111111111111111111111010101010 "
0G
0F
#1130
0#
#1140
1#
1F
1G
b11111111111111111111111010101011 "
#1150
0#
#1160
1#
b11111111111111111111111010101100 "
0I
1H
#1170
0#
#1180
1#
1I
b11111111111111111111111010101101 "
0G
b110011001100001011011000111001101100101 @
#1190
0#
#1200
1#
0I
1G
b11111111111111111111111010101110 "
#1210
0#
#1220
1#
b11111111111111111111111010101111 "
0H
0F
#1230
0#
#1240
1#
1F
b11111111111111111111111010110000 "
1H
#1250
0#
#1260
1#
0H
b111010001110010011101010110010100100000 @
b11111111111111111111111010110001 "
1I
#1270
0#
#1280
1#
0F
b11111111111111111111111010110010 "
0G
#1290
0#
#1300
1#
1G
b11111111111111111111111010110011 "
1F
#1310
0#
#1320
1#
0I
1H
b11111111111111111111111010110100 "
#1330
0#
#1340
1#
b11111111111111111111111010110101 "
1I
b110011001100001011011000111001101100101 @
0G
#1350
0#
#1360
1#
1G
b11111111111111111111111010110110 "
0I
#1370
0#
#1380
1#
0F
b11111111111111111111111010110111 "
0H
#1390
0#
#1400
1#
1H
b11111111111111111111111010111000 "
1F
#1410
0#
#1420
1#
1I
b11111111111111111111111010111001 "
0H
b111010001110010011101010110010100100000 @
#1430
0#
#1440
1#
0F
0G
b11111111111111111111111010111010 "
#1450
0#
#1460
1#
b11111111111111111111111010111011 "
1F
1G
#1470
0#
#1480
1#
b11111111111111111111111010111100 "
0I
1H
#1490
0#
#1500
1#
b110011001100001011011000111001101100101 @
0G
1I
b11111111111111111111111010111101 "
#1510
0#
#1520
1#
b11111111111111111111111010111110 "
0I
1G
#1530
0#
#1540
1#
0H
0F
b11111111111111111111111010111111 "
#1550
0#
#1560
1#
b11111111111111111111111011000000 "
1F
1H
#1570
0#
#1580
1#
0H
b111010001110010011101010110010100100000 @
1I
b11111111111111111111111011000001 "
#1590
0#
#1600
1#
b11111111111111111111111011000010 "
0G
0F
#1610
0#
#1620
1#
1F
b11111111111111111111111011000011 "
1G
#1630
0#
#1640
1#
1H
b11111111111111111111111011000100 "
0I
#1650
0#
#1660
1#
1I
0G
b11111111111111111111111011000101 "
b110011001100001011011000111001101100101 @
#1670
0#
#1680
1#
0I
b11111111111111111111111011000110 "
1G
#1690
0#
#1700
1#
0F
b11111111111111111111111011000111 "
0H
#1710
0#
#1720
1#
1H
b11111111111111111111111011001000 "
1F
#1730
0#
#1740
1#
b111010001110010011101010110010100100000 @
b11111111111111111111111011001001 "
0H
1I
#1750
0#
#1760
1#
0G
0F
b11111111111111111111111011001010 "
#1770
0#
#1780
1#
b11111111111111111111111011001011 "
1G
1F
#1790
0#
#1800
1#
0I
b11111111111111111111111011001100 "
1H
#1810
0#
#1820
1#
1I
b11111111111111111111111011001101 "
b110011001100001011011000111001101100101 @
0G
#1830
0#
#1840
1#
1G
0I
b11111111111111111111111011001110 "
#1850
0#
#1860
1#
b11111111111111111111111011001111 "
0F
0H
#1870
0#
#1880
1#
1H
1F
b11111111111111111111111011010000 "
#1890
0#
#1900
1#
b11111111111111111111111011010001 "
0H
1I
b111010001110010011101010110010100100000 @
#1910
0#
#1920
1#
0F
b11111111111111111111111011010010 "
0G
#1930
0#
#1940
1#
1G
1F
b11111111111111111111111011010011 "
#1950
0#
#1960
1#
b11111111111111111111111011010100 "
1H
0I
#1970
0#
#1980
1#
1I
b110011001100001011011000111001101100101 @
0G
b11111111111111111111111011010101 "
#1990
0#
#2000
1#
b11111111111111111111111011010110 "
0I
1G
#2010
0#
#2020
1#
b11111111111111111111111011010111 "
0F
#2030
0#
#2040
1#
1F
b11111111111111111111111011011000 "
#2050
0#
#2060
1#
b11111111111111111111111011011001 "
b111010001110010011101010110010100100000 @
1I
#2070
0#
#2080
1#
b11111111111111111111111011011010 "
0F
0H
#2090
0#
#2100
1#
1F
b11111111111111111111111011011011 "
#2110
0#
#2120
1#
1H
0I
b11111111111111111111111011011100 "
#2130
0#
#2140
1#
b11111111111111111111111011011101 "
1I
b110011001100001011011000111001101100101 @
#2150
0#
#2160
1#
0I
b11111111111111111111111011011110 "
#2170
0#
#2180
1#
b11111111111111111111111011011111 "
0F
#2190
0#
#2200
1#
0H
1F
b11111111111111111111111011100000 "
#2210
0#
#2220
1#
b11111111111111111111111011100001 "
1I
1H
#2230
0#
#2240
1#
0H
b111010001110010011101010110010100100000 @
0F
b11111111111111111111111011100010 "
#2250
0#
#2260
1#
b11111111111111111111111011100011 "
0G
1F
#2270
0#
#2280
1#
b11111111111111111111111011100100 "
1G
0I
#2290
0#
#2300
1#
1I
1H
b11111111111111111111111011100101 "
b110011001100001011011000111001101100101 @
#2310
0#
#2320
1#
0I
b11111111111111111111111011100110 "
0G
#2330
0#
#2340
1#
1G
0F
b11111111111111111111111011100111 "
#2350
0#
#2360
1#
b11111111111111111111111011101000 "
1F
0H
#2370
0#
#2380
1#
1H
1I
b11111111111111111111111011101001 "
#2390
0#
#2400
1#
b11111111111111111111111011101010 "
b111010001110010011101010110010100100000 @
0F
0H
#2410
0#
#2420
1#
b11111111111111111111111011101011 "
0G
1F
#2430
0#
#2440
1#
b11111111111111111111111011101100 "
1G
0I
#2450
0#
#2460
1#
1I
1H
b11111111111111111111111011101101 "
#2470
0#
#2480
1#
b11111111111111111111111011101110 "
0I
0G
b110011001100001011011000111001101100101 @
#2490
0#
#2500
1#
b11111111111111111111111011101111 "
0F
1G
#2510
0#
#2520
1#
b11111111111111111111111011110000 "
1F
0H
#2530
0#
#2540
1#
1H
b11111111111111111111111011110001 "
1I
#2550
0#
#2560
1#
b111010001110010011101010110010100100000 @
b11111111111111111111111011110010 "
0F
0H
#2570
0#
#2580
1#
0G
1F
b11111111111111111111111011110011 "
#2590
0#
#2600
1#
b11111111111111111111111011110100 "
0I
1G
#2610
0#
#2620
1#
b11111111111111111111111011110101 "
1H
1I
#2630
0#
#2640
1#
0I
0G
b11111111111111111111111011110110 "
b110011001100001011011000111001101100101 @
#2650
0#
#2660
1#
1G
b11111111111111111111111011110111 "
0F
#2670
0#
#2680
1#
1F
b11111111111111111111111011111000 "
0H
#2690
0#
#2700
1#
1H
1I
b11111111111111111111111011111001 "
#2710
0#
#2720
1#
b11111111111111111111111011111010 "
b111010001110010011101010110010100100000 @
0H
0F
#2730
0#
#2740
1#
1F
b11111111111111111111111011111011 "
0G
#2750
0#
#2760
1#
1G
b11111111111111111111111011111100 "
0I
#2770
0#
#2780
1#
1I
b11111111111111111111111011111101 "
1H
#2790
0#
#2800
1#
b110011001100001011011000111001101100101 @
b11111111111111111111111011111110 "
0G
0I
#2810
0#
#2820
1#
0F
1G
b11111111111111111111111011111111 "
#2830
0#
#2840
1#
b11111111111111111111111100000000 "
0H
1F
#2850
0#
#2860
1#
b11111111111111111111111100000001 "
1I
1H
#2870
0#
#2880
1#
0H
0F
b11111111111111111111111100000010 "
b111010001110010011101010110010100100000 @
#2890
0#
#2900
1#
1F
b11111111111111111111111100000011 "
0G
#2910
0#
#2920
1#
1G
b11111111111111111111111100000100 "
0I
#2930
0#
#2940
1#
1I
1H
b11111111111111111111111100000101 "
#2950
0#
#2960
1#
b11111111111111111111111100000110 "
b110011001100001011011000111001101100101 @
0I
0G
#2970
0#
#2980
1#
1G
b11111111111111111111111100000111 "
0F
#2990
0#
#3000
1#
1F
b11111111111111111111111100001000 "
0H
#3010
0#
#3020
1#
1H
b11111111111111111111111100001001 "
1I
#3030
0#
#3040
1#
b111010001110010011101010110010100100000 @
b11111111111111111111111100001010 "
0F
0H
#3050
0#
#3060
1#
0G
1F
b11111111111111111111111100001011 "
#3070
0#
#3080
1#
b11111111111111111111111100001100 "
0I
1G
#3090
0#
#3100
1#
b11111111111111111111111100001101 "
1H
1I
#3110
0#
#3120
1#
0I
0G
b11111111111111111111111100001110 "
b110011001100001011011000111001101100101 @
#3130
0#
#3140
1#
1G
b11111111111111111111111100001111 "
0F
#3150
0#
#3160
1#
1F
b11111111111111111111111100010000 "
0H
#3170
0#
#3180
1#
1H
1I
b11111111111111111111111100010001 "
#3190
0#
#3200
1#
b11111111111111111111111100010010 "
b111010001110010011101010110010100100000 @
0H
0F
#3210
0#
#3220
1#
1F
b11111111111111111111111100010011 "
0G
#3230
0#
#3240
1#
1G
b11111111111111111111111100010100 "
0I
#3250
0#
#3260
1#
1I
b11111111111111111111111100010101 "
1H
#3270
0#
#3280
1#
b110011001100001011011000111001101100101 @
b11111111111111111111111100010110 "
0G
0I
#3290
0#
#3300
1#
0F
1G
b11111111111111111111111100010111 "
#3310
0#
#3320
1#
b11111111111111111111111100011000 "
0H
1F
#3330
0#
#3340
1#
b11111111111111111111111100011001 "
1I
1H
#3350
0#
#3360
1#
0H
0F
b11111111111111111111111100011010 "
b111010001110010011101010110010100100000 @
#3370
0#
#3380
1#
1F
b11111111111111111111111100011011 "
0G
#3390
0#
#3400
1#
1G
b11111111111111111111111100011100 "
0I
#3410
0#
#3420
1#
1I
1H
b11111111111111111111111100011101 "
#3430
0#
#3440
1#
b11111111111111111111111100011110 "
b110011001100001011011000111001101100101 @
0I
0G
#3450
0#
#3460
1#
1G
b11111111111111111111111100011111 "
0F
#3470
0#
#3480
1#
1F
b11111111111111111111111100100000 "
0H
#3490
0#
#3500
1#
1H
b11111111111111111111111100100001 "
1I
#3510
0#
#3520
1#
b111010001110010011101010110010100100000 @
b11111111111111111111111100100010 "
0F
0H
#3530
0#
#3540
1#
0G
1F
b11111111111111111111111100100011 "
#3550
0#
#3560
1#
b11111111111111111111111100100100 "
0I
1G
#3570
0#
#3580
1#
b11111111111111111111111100100101 "
1H
1I
#3590
0#
#3600
1#
0I
0G
b11111111111111111111111100100110 "
b110011001100001011011000111001101100101 @
#3610
0#
#3620
1#
1G
b11111111111111111111111100100111 "
0F
#3630
0#
#3640
1#
1F
b11111111111111111111111100101000 "
0H
#3650
0#
#3660
1#
1H
1I
b11111111111111111111111100101001 "
#3670
0#
#3680
1#
b11111111111111111111111100101010 "
b111010001110010011101010110010100100000 @
0H
0F
#3690
0#
#3700
1#
1F
b11111111111111111111111100101011 "
0G
#3710
0#
#3720
1#
1G
b11111111111111111111111100101100 "
0I
#3730
0#
#3740
1#
1I
b11111111111111111111111100101101 "
1H
#3750
0#
#3760
1#
b110011001100001011011000111001101100101 @
b11111111111111111111111100101110 "
0G
0I
#3770
0#
#3780
1#
0F
1G
b11111111111111111111111100101111 "
#3790
0#
#3800
1#
b11111111111111111111111100110000 "
0H
1F
#3810
0#
#3820
1#
b11111111111111111111111100110001 "
1I
1H
#3830
0#
#3840
1#
0H
0F
b11111111111111111111111100110010 "
b111010001110010011101010110010100100000 @
#3850
0#
#3860
1#
1F
b11111111111111111111111100110011 "
0G
#3870
0#
#3880
1#
1G
b11111111111111111111111100110100 "
0I
#3890
0#
#3900
1#
1I
1H
b11111111111111111111111100110101 "
#3910
0#
#3920
1#
b11111111111111111111111100110110 "
b110011001100001011011000111001101100101 @
0I
0G
#3930
0#
#3940
1#
1G
b11111111111111111111111100110111 "
0F
#3950
0#
#3960
1#
1F
b11111111111111111111111100111000 "
0H
#3970
0#
#3980
1#
1H
b11111111111111111111111100111001 "
1I
#3990
0#
#4000
1#
b111010001110010011101010110010100100000 @
b11111111111111111111111100111010 "
0F
0H
#4010
0#
#4020
1#
0G
1F
b11111111111111111111111100111011 "
#4030
0#
#4040
1#
b11111111111111111111111100111100 "
0I
1G
#4050
0#
#4060
1#
b11111111111111111111111100111101 "
1H
1I
#4070
0#
#4080
1#
0I
0G
b11111111111111111111111100111110 "
b110011001100001011011000111001101100101 @
#4090
0#
#4100
1#
1G
b11111111111111111111111100111111 "
0F
#4110
0#
#4120
1#
1F
b11111111111111111111111101000000 "
0H
#4130
0#
#4140
1#
1H
1I
b11111111111111111111111101000001 "
#4150
0#
#4160
1#
b11111111111111111111111101000010 "
b111010001110010011101010110010100100000 @
0H
0F
#4170
0#
#4180
1#
1F
b11111111111111111111111101000011 "
0G
#4190
0#
#4200
1#
1G
b11111111111111111111111101000100 "
0I
#4210
0#
#4220
1#
1I
b11111111111111111111111101000101 "
1H
#4230
0#
#4240
1#
b110011001100001011011000111001101100101 @
b11111111111111111111111101000110 "
0G
0I
#4250
0#
#4260
1#
0F
1G
b11111111111111111111111101000111 "
#4270
0#
#4280
1#
b11111111111111111111111101001000 "
0H
1F
#4290
0#
#4300
1#
b11111111111111111111111101001001 "
1I
1H
#4310
0#
#4320
1#
0H
0F
b11111111111111111111111101001010 "
b111010001110010011101010110010100100000 @
#4330
0#
#4340
1#
1F
b11111111111111111111111101001011 "
0G
#4350
0#
#4360
1#
1G
b11111111111111111111111101001100 "
0I
#4370
0#
#4380
1#
1I
1H
b11111111111111111111111101001101 "
#4390
0#
#4400
1#
b11111111111111111111111101001110 "
b110011001100001011011000111001101100101 @
0I
0G
#4410
0#
#4420
1#
1G
b11111111111111111111111101001111 "
0F
#4430
0#
#4440
1#
1F
b11111111111111111111111101010000 "
0H
#4450
0#
#4460
1#
1H
b11111111111111111111111101010001 "
1I
#4470
0#
#4480
1#
b111010001110010011101010110010100100000 @
b11111111111111111111111101010010 "
0F
0H
#4490
0#
#4500
1#
0G
1F
b11111111111111111111111101010011 "
#4510
0#
#4520
1#
b11111111111111111111111101010100 "
0I
1G
#4530
0#
#4540
1#
b11111111111111111111111101010101 "
1H
1I
#4550
0#
#4560
1#
0I
0G
b11111111111111111111111101010110 "
b110011001100001011011000111001101100101 @
#4570
0#
#4580
1#
1G
b11111111111111111111111101010111 "
0F
#4590
0#
#4600
1#
1F
b11111111111111111111111101011000 "
0H
#4610
0#
#4620
1#
1H
1I
b11111111111111111111111101011001 "
#4630
0#
#4640
1#
b11111111111111111111111101011010 "
b111010001110010011101010110010100100000 @
0H
0F
#4650
0#
#4660
1#
1F
b11111111111111111111111101011011 "
0G
#4670
0#
#4680
1#
1G
b11111111111111111111111101011100 "
0I
#4690
0#
#4700
1#
1I
b11111111111111111111111101011101 "
1H
#4710
0#
#4720
1#
b110011001100001011011000111001101100101 @
b11111111111111111111111101011110 "
0G
0I
#4730
0#
#4740
1#
0F
1G
b11111111111111111111111101011111 "
#4750
0#
#4760
1#
b11111111111111111111111101100000 "
0H
1F
#4770
0#
#4780
1#
b11111111111111111111111101100001 "
1I
1H
#4790
0#
#4800
1#
0H
0F
b11111111111111111111111101100010 "
b111010001110010011101010110010100100000 @
#4810
0#
#4820
1#
1F
b11111111111111111111111101100011 "
0G
#4830
0#
#4840
1#
1G
b11111111111111111111111101100100 "
0I
#4850
0#
#4860
1#
1I
1H
b11111111111111111111111101100101 "
#4870
0#
#4880
1#
b11111111111111111111111101100110 "
b110011001100001011011000111001101100101 @
0I
0G
#4890
0#
#4900
1#
1G
b11111111111111111111111101100111 "
0F
#4910
0#
#4920
1#
1F
b11111111111111111111111101101000 "
0H
#4930
0#
#4940
1#
1H
b11111111111111111111111101101001 "
1I
#4950
0#
#4960
1#
b111010001110010011101010110010100100000 @
b11111111111111111111111101101010 "
0F
0H
#4970
0#
#4980
1#
0G
1F
b11111111111111111111111101101011 "
#4990
0#
#5000
1#
b11111111111111111111111101101100 "
0I
1G
#5010
0#
#5020
1#
b11111111111111111111111101101101 "
1H
1I
#5030
0#
