report/picture/paperpicture/spw/spw_modelsim/SpW_FIFO_tb/spw_contrl and asym fifo_sim image.vcd
$date
	Tue Jul 23 19:29:54 2024
$end
$version
	ModelSim Version 2023.4
$end
$timescale
	1ns
$end
$scope module dut_spwfifo_tb $end
$scope module uut $end
$scope module ccsds121_top_wrapper_0 $end
$var wire 1 ! DataOut [31] $end
$var wire 1 " DataOut [30] $end
$var wire 1 # DataOut [29] $end
$var wire 1 $ DataOut [28] $end
$var wire 1 % DataOut [27] $end
$var wire 1 & DataOut [26] $end
$var wire 1 ' DataOut [25] $end
$var wire 1 ( DataOut [24] $end
$var wire 1 ) DataOut [23] $end
$var wire 1 * DataOut [22] $end
$var wire 1 + DataOut [21] $end
$var wire 1 , DataOut [20] $end
$var wire 1 - DataOut [19] $end
$var wire 1 . DataOut [18] $end
$var wire 1 / DataOut [17] $end
$var wire 1 0 DataOut [16] $end
$var wire 1 1 DataOut [15] $end
$var wire 1 2 DataOut [14] $end
$var wire 1 3 DataOut [13] $end
$var wire 1 4 DataOut [12] $end
$var wire 1 5 DataOut [11] $end
$var wire 1 6 DataOut [10] $end
$var wire 1 7 DataOut [9] $end
$var wire 1 8 DataOut [8] $end
$var wire 1 9 DataOut [7] $end
$var wire 1 : DataOut [6] $end
$var wire 1 ; DataOut [5] $end
$var wire 1 < DataOut [4] $end
$var wire 1 = DataOut [3] $end
$var wire 1 > DataOut [2] $end
$var wire 1 ? DataOut [1] $end
$var wire 1 @ DataOut [0] $end
$upscope $end
$upscope $end
$upscope $end
$enddefinitions $end
#0
x!
x"
x#
x$
x%
x&
x'
x(
x)
x*
x+
x,
x-
x.
x/
x0
x1
x2
x3
x4
x5
x6
x7
x8
x9
x:
x;
x<
x=
x>
x?
x@
#27650
0!
0"
0#
0$
0%
0&
0'
0(
0)
0*
0+
0,
0-
0.
0/
00
01
02
03
04
05
16
17
18
09
0:
0;
0<
0=
0>
0?
0@
#27690
1%
07
1<
#27730
0%
1.
10
13
08
0<
#27770
1%
1&
1+
0.
00
12
06
1:
1<
1=
1@
#31920
0%
0&
1*
0+
03
0:
0@
#31930
0*
02
0<
0=
#31940
1=
1>
1?
1@
#31970
1!
1"
1#
1$
1%
1&
1'
1(
1)
1*
1+
1,
1-
1.
1/
10
11
12
13
14
15
16
17
18
19
1:
1;
1<
0>
0?
0@
#31980
0!
0"
0#
0$
0%
0&
0'
0(
0)
0*
0+
0,
0-
0.
0/
00
01
02
03
04
05
06
07
08
09
0:
0;
0<
0=
#35480
1?
1@
#35490
1!
1"
1#
1$
1(
1)
1*
1+
1,
10
11
12
13
14
15
19
1=
0?
0@
#35500
0"
0#
0$
1%
0(
1-
1.
00
01
03
04
05
16
09
1:
0=
1>
#35530
0!
1"
1#
1$
0)
0*
0+
0,
0-
0.
02
06
18
19
1;
1<
1=
1?
1@
#35540
1!
0$
0%
1'
1(
1)
16
17
0<
0=
0>
0?
0@
#35550
0!
0"
0#
0'
0(
0)
06
07
08
09
1<
1=
1>
1?
1@
#35560
1!
1"
1#
1$
1%
1&
1'
1(
1)
1*
1+
1,
1-
1.
1/
10
11
12
13
14
15
16
17
0:
0;
0<
0=
0>
0?
0@
#35570
0!
0"
0#
0$
0%
0&
0'
0(
0)
0*
0+
0,
0-
0.
0/
00
01
02
03
04
05
18
19
1:
1;
1<
1=
1>
1?
1@
#35580
1!
1"
1#
1$
1%
1&
1'
1(
1)
1*
1+
1,
1-
1.
1/
10
11
12
13
06
07
08
09
0:
0;
0<
0=
0>
0?
0@
#38960
0!
0"
0#
0$
0%
0&
0'
0-
0.
0/
01
02
03
14
18
1<
1@
#38970
1!
1"
1#
1$
0)
0*
0+
19
1:
1;
1=
0@
#39010
0"
0#
0$
1%
0(
1)
0,
1-
00
11
12
13
15
16
08
09
0;
0<
0=
#39020
0!
0%
1'
1(
1*
1+
1,
1.
1/
10
17
18
19
1;
1<
1=
1>
1?
1@
#39030
1!
1"
1#
1$
0'
0(
0)
0*
0+
0,
0-
0.
0/
00
01
02
03
04
05
06
07
08
09
0:
0;
0<
#39040
1%
1&
1'
1(
1)
1*
1+
1,
1-
1.
1/
10
11
12
13
14
15
16
17
18
19
1:
0=
0>
0?
0@
#39050
0!
0"
0#
0$
0%
0&
0'
0(
0)
0*
0+
0,
0-
0.
0/
00
01
02
03
04
05
06
07
08
1;
1<
1=
1>
1?
1@
#39060
1!
1"
1#
1$
1%
1&
1'
1(
1)
1*
1+
1,
1-
1.
1/
10
11
12
13
14
15
16
09
0:
0;
0<
0=
0>
0?
0@
#42640
0!
0"
0#
0$
0%
0&
0'
0(
0)
0*
0+
0,
0-
0.
0/
00
01
02
03
04
17
18
19
1:
1<
#42650
1!
1#
1%
1'
1(
1)
1*
1+
1,
1.
10
12
14
05
07
1;
1=
1?
#42690
1&
0+
1-
0.
1/
11
13
15
17
1>
1@
#42700
1"
1$
1+
0,
0-
0/
00
01
02
03
04
05
06
07
08
09
0:
0;
0<
0=
0>
0?
0@
#42710
0!
0"
0#
0$
0%
0&
0'
0(
0)
0*
0+
1/
10
11
12
13
14
15
16
17
18
19
1:
1;
1<
1=
1>
1?
1@
#42720
1!
1"
1#
1$
1%
1&
1'
1(
1)
1*
1+
1,
1-
1.
09
0:
0;
0<
0=
0>
0?
0@
#42730
0!
0"
0#
0$
0%
0&
0'
0(
0)
0*
0+
0,
0-
0.
0/
00
01
02
03
04
05
06
07
08
1<
1=
1>
1?
1@
#42740
1!
1"
1#
1$
1%
1&
1'
1(
1)
1*
1+
1,
1-
1.
1/
10
11
12
13
14
15
16
17
0<
0=
0>
#42750
0#
0%
0&
0'
0(
0)
0*
0+
0,
0-
0.
0/
00
01
02
03
04
05
06
07
1;
1<
1=
1>
#46080
0"
0$
1)
1*
1+
1,
1-
1.
1/
11
16
18
19
1:
0>
#46090
0!
1"
1$
1&
1(
0.
13
15
06
17
0=
1>
0?
#46130
1%
1'
1.
10
12
03
05
07
08
09
1=
0>
1?
0@
#46140
0"
0$
0%
0&
0'
0(
0)
0*
0+
0,
0-
0.
0/
00
01
02
16
17
18
19
0=
0?
#46150
1$
1%
1&
1'
1(
1)
1*
1+
1,
1-
1.
1/
10
11
12
13
14
15
1=
1>
1?
#46160
0$
0%
0&
0'
0(
0)
0*
0+
0,
0-
0.
0/
00
01
02
03
04
05
06
07
08
09
0:
0;
0<
0=
0>
0?
#46170
1#
1$
1%
1&
1'
1(
1)
1*
1+
1,
1-
1.
1/
10
11
12
13
14
15
16
17
18
19
1:
1;
1<
1=
1>
1?
1@
#46180
1!
1"
0&
0'
0(
0)
0*
0+
0,
0-
0.
0/
00
01
02
03
04
05
06
07
08
09
0:
0;
0<
0=
0>
0?
0@
#46190
0!
0"
0#
0$
0%
1)
1*
1+
1,
1-
1.
1/
10
11
12
13
14
15
16
17
18
19
1:
1;
1<
1=
1>
1?
1@
#49720
1!
1"
1#
1$
1'
1(
0*
0+
0,
03
04
05
07
08
09
0;
0<
0=
0?
0@
#49730
0!
0#
0$
1&
1*
0-
0/
00
01
13
14
15
18
0:
1<
0>
1@
#49770
0"
1$
0&
0'
0*
1-
0.
11
02
03
04
19
1:
1;
1=
1>
0@
#49780
0$
0(
0)
0-
01
05
06
08
09
0:
0;
0<
1?
1@
#49790
1!
1"
1#
1$
1%
1&
1'
1(
1)
1*
1+
1,
1-
1.
1/
10
11
12
13
14
15
16
17
18
19
1:
0=
0>
0?
0@
#49800
0!
0"
0#
0$
0%
0&
0'
0(
0)
0*
0+
0,
0-
0.
0/
00
01
02
1;
#49810
03
04
05
06
0:
1=
1>
1?
1@
#49820
1!
1"
1#
1$
1%
1&
1'
1(
1)
1*
1+
1,
1-
1.
1/
10
11
12
13
14
07
08
09
1<
#53280
0-
0.
0/
00
01
02
15
17
#53290
0!
0"
0#
0&
0'
0(
0*
0+
0,
1-
11
12
16
19
0;
0<
0>
0?
0@
#53300
1!
0$
1*
1+
1,
1.
1/
01
02
04
05
06
09
1;
1<
0=
1@
#53330
1"
0%
0)
0*
0+
0,
0-
0.
0/
03
15
16
18
19
1:
0;
0<
0@
#53340
1#
1$
1%
1&
1'
1(
1)
1*
1+
1,
1-
1.
1/
10
11
12
13
05
06
07
09
0:
#53350
0!
0"
0#
0$
0%
0&
0'
0(
0)
0*
0+
0,
0-
0.
0/
00
01
02
03
17
19
1;
1=
1>
1?
1@
#53360
1!
1"
1#
1$
1%
1&
1'
1(
1)
1*
1+
1,
1-
1.
1/
10
11
12
13
14
07
08
09
0;
0=
0>
0?
0@
#53370
0!
0"
0#
0$
0%
0&
0'
0(
0)
0*
0+
0,
0.
0/
00
01
03
04
1:
1<
1?
1@
#53380
1!
1"
1#
1$
1%
1&
1'
1(
1)
1*
0-
11
13
14
15
16
0:
0<
0?
0@
#56840
0!
0"
0#
0$
1.
01
03
04
05
17
1;
1<
1=
1>
1?
1@
#56850
1$
0%
0&
0'
0)
0*
1,
1-
0.
11
13
14
06
07
18
19
0;
0<
0>
0?
0@
#56890
1!
0$
1%
1&
0(
1*
1+
1.
01
02
03
04
15
08
09
1:
0=
#56900
0!
1"
1$
0%
0&
1'
1(
1)
1/
10
11
12
05
19
1;
1<
1=
1>
#56910
0"
0$
0'
0(
0)
0*
0+
0,
0-
0.
0/
00
02
16
09
0:
0;
0<
0=
1@
#56920
1#
1$
1%
1&
1'
1(
1)
1*
1+
1,
1-
1.
01
15
17
18
19
1:
0>
0@
#56930
0#
0$
0%
0&
0'
0(
0)
0*
0+
0,
1/
10
11
12
05
06
07
08
1;
1<
1=
1>
1?
1@
#56940
1!
1"
1#
1$
1%
1&
1'
1(
1)
1*
1+
0-
0.
0/
13
16
09
0:
0;
0<
0=
0>
0?
0@
#59620
0!
0"
0#
0$
0%
0&
0'
0(
0)
0*
0+
00
14
06
18
1<
1@
#59630
1!
1%
1&
1'
1(
1)
1*
1.
01
03
04
16
17
08
1;
1=
1>
1?
#59670
0!
1$
0%
0&
0'
0)
0*
1,
1-
1/
10
11
13
14
06
07
#59680
1!
1"
1#
1%
1&
1'
1)
1*
1+
0.
0/
00
01
15
18
0;
0<
0=
0>
0?
0@
#59690
0!
0"
0#
0$
0%
0&
0'
0(
0)
0*
0+
0,
0-
02
03
04
05
17
19
1:
1;
1<
1=
1>
1?
1@
#59700
1!
1"
1#
1$
1%
1&
1'
1(
1)
1.
1/
10
11
14
07
08
09
0:
0;
0<
0=
0>
0?
0@
#59710
0!
0"
0#
0$
0%
0&
0'
0(
0)
0.
0/
00
01
13
15
16
17
18
19
1:
1;
1<
1=
1>
1?
1@
#59720
1!
1"
1#
1$
03
04
05
06
07
08
09
0:
0;
0<
0=
0>
0?
0@
#59740
0!
0"
0#
0$
#60010
16
17
18
#60050
1%
07
1<
#60090
0%
1.
10
13
08
0<
#60130
1%
1&
1+
0.
00
12
06
1:
1<
1=
1@
#63800
0%
0&
1*
0+
03
0:
0@
#63810
0*
02
0<
0=
#63820
1=
1>
1?
1@
#63850
1!
1"
1#
1$
1%
1&
1'
1(
1)
1*
1+
1,
1-
1.
1/
10
11
12
13
14
15
16
17
18
19
1:
1;
1<
0>
0?
0@
#63860
0!
0"
0#
0$
0%
0&
0'
0(
0)
0*
0+
0,
0-
0.
0/
00
01
02
03
04
05
06
07
08
09
0:
0;
0<
0=
#67280
1?
1@
#67290
1!
1"
1#
1$
1(
1)
1*
1+
1,
10
11
12
13
14
15
19
1=
0?
0@
#67300
0"
0#
0$
1%
0(
1-
1.
00
01
03
04
05
16
09
1:
0=
1>
#67330
0!
1"
1#
1$
0)
0*
0+
0,
0-
0.
02
06
18
19
1;
1<
1=
1?
1@
#67340
1!
0$
0%
1'
1(
1)
16
17
0<
0=
0>
0?
0@
#67350
0!
0"
0#
0'
0(
0)
06
07
08
09
1<
1=
1>
1?
1@
#67360
1!
1"
1#
1$
1%
1&
1'
1(
1)
1*
1+
1,
1-
1.
1/
10
11
12
13
14
15
16
17
0:
0;
0<
0=
0>
0?
0@
#67370
0!
0"
0#
0$
0%
0&
0'
0(
0)
0*
0+
0,
0-
0.
0/
00
01
02
03
04
05
18
19
1:
1;
1<
1=
1>
1?
1@
#67380
1!
1"
1#
1$
1%
1&
1'
1(
1)
1*
1+
1,
1-
1.
1/
10
11
12
13
06
07
08
09
0:
0;
0<
0=
0>
0?
0@
#70800
0!
0"
0#
0$
0%
0&
0'
0-
0.
0/
01
02
03
14
18
1<
1@
#70810
1!
1"
1#
1$
0)
0*
0+
19
1:
1;
1=
0@
#70850
0"
0#
0$
1%
0(
1)
0,
1-
00
11
12
13
15
16
08
09
0;
0<
0=
#70860
0!
0%
1'
1(
1*
1+
1,
1.
1/
10
17
18
19
1;
1<
1=
1>
1?
1@
#70870
1!
1"
1#
1$
0'
0(
0)
0*
0+
0,
0-
0.
0/
00
01
02
03
04
05
06
07
08
09
0:
0;
0<
#70880
1%
1&
1'
1(
1)
1*
1+
1,
1-
1.
1/
10
11
12
13
14
15
16
17
18
19
1:
0=
0>
0?
0@
#70890
0!
0"
0#
0$
0%
0&
0'
0(
0)
0*
0+
0,
0-
0.
0/
00
01
02
03
04
05
06
07
08
1;
1<
1=
1>
1?
1@
#70900
1!
1"
1#
1$
1%
1&
1'
1(
1)
1*
1+
1,
1-
1.
1/
10
11
12
13
14
15
16
09
0:
0;
0<
0=
0>
0?
0@
#74480
0!
0"
0#
0$
0%
0&
0'
0(
0)
0*
0+
0,
0-
0.
0/
00
01
02
03
04
17
18
19
1:
1<
#74490
1!
1#
1%
1'
1(
1)
1*
1+
1,
1.
10
12
14
05
07
1;
1=
1?
#74530
1&
0+
1-
0.
1/
11
13
15
17
1>
1@
#74540
1"
1$
1+
0,
0-
0/
00
01
02
03
04
05
06
07
08
09
0:
0;
0<
0=
0>
0?
0@
#74550
0!
0"
0#
0$
0%
0&
0'
0(
0)
0*
0+
1/
10
11
12
13
14
15
16
17
18
19
1:
1;
1<
1=
1>
1?
1@
#74560
1!
1"
1#
1$
1%
1&
1'
1(
1)
1*
1+
1,
1-
1.
09
0:
0;
0<
0=
0>
0?
0@
#74570
0!
0"
0#
0$
0%
0&
0'
0(
0)
0*
0+
0,
0-
0.
0/
00
01
02
03
04
05
06
07
08
1<
1=
1>
1?
1@
#74580
1!
1"
1#
1$
1%
1&
1'
1(
1)
1*
1+
1,
1-
1.
1/
10
11
12
13
14
15
16
17
0<
0=
0>
#74590
0#
0%
0&
0'
0(
0)
0*
0+
0,
0-
0.
0/
00
01
02
03
04
05
06
07
1;
1<
1=
1>
#78000
0"
0$
1)
1*
1+
1,
1-
1.
1/
11
16
18
19
1:
0>
#78010
0!
1"
1$
1&
1(
0.
13
15
06
17
0=
1>
0?
#78050
1%
1'
1.
10
12
03
05
07
08
09
1=
0>
1?
0@
#78060
0"
0$
0%
0&
0'
0(
0)
0*
0+
0,
0-
0.
0/
00
01
02
16
17
18
19
0=
0?
#78070
1$
1%
1&
1'
1(
1)
1*
1+
1,
1-
1.
1/
10
11
12
13
14
15
1=
1>
1?
#78080
0$
0%
0&
0'
0(
0)
0*
0+
0,
0-
0.
0/
00
01
02
03
04
05
06
07
08
09
0:
0;
0<
0=
0>
0?
#78090
1#
1$
1%
1&
1'
1(
1)
1*
1+
1,
1-
1.
1/
10
11
12
13
14
15
16
17
18
19
1:
1;
1<
1=
1>
1?
1@
#78100
1!
1"
0&
0'
0(
0)
0*
0+
0,
0-
0.
0/
00
01
02
03
04
05
06
07
08
09
0:
0;
0<
0=
0>
0?
0@
#78110
0!
0"
0#
0$
0%
1)
1*
1+
1,
1-
1.
1/
10
11
12
13
14
15
16
17
18
19
1:
1;
1<
1=
1>
1?
1@
#81520
1!
1"
1#
1$
1'
1(
0*
0+
0,
03
04
05
07
08
09
0;
0<
0=
0?
0@
#81530
0!
0#
0$
1&
1*
0-
0/
00
01
13
14
15
18
0:
1<
0>
1@
#81570
0"
1$
0&
0'
0*
1-
0.
11
02
03
04
19
1:
1;
1=
1>
0@
#81580
0$
0(
0)
0-
01
05
06
08
09
0:
0;
0<
1?
1@
#81590
1!
1"
1#
1$
1%
1&
1'
1(
1)
1*
1+
1,
1-
1.
1/
10
11
12
13
14
15
16
17
18
19
1:
0=
0>
0?
0@
#81600
0!
0"
0#
0$
0%
0&
0'
0(
0)
0*
0+
0,
0-
0.
0/
00
01
02
1;
#81610
03
04
05
06
0:
1=
1>
1?
1@
#81620
1!
1"
1#
1$
1%
1&
1'
1(
1)
1*
1+
1,
1-
1.
1/
10
11
12
13
14
07
08
09
1<
#84920
0-
0.
0/
00
01
02
15
17
#84930
0!
0"
0#
0&
0'
0(
0*
0+
0,
1-
11
12
16
19
0;
0<
0>
0?
0@
#84940
1!
0$
1*
1+
1,
1.
1/
01
02
04
05
06
09
1;
1<
0=
1@
#84970
1"
0%
0)
0*
0+
0,
0-
0.
0/
03
15
16
18
19
1:
0;
0<
0@
#84980
1#
1$
1%
1&
1'
1(
1)
1*
1+
1,
1-
1.
1/
10
11
12
13
05
06
07
09
0:
#84990
0!
0"
0#
0$
0%
0&
0'
0(
0)
0*
0+
0,
0-
0.
0/
00
01
02
03
17
19
1;
1=
1>
1?
1@
#85000
1!
1"
1#
1$
1%
1&
1'
1(
1)
1*
1+
1,
1-
1.
1/
10
11
12
13
14
07
08
09
0;
0=
0>
0?
0@
#85010
0!
0"
0#
0$
0%
0&
0'
0(
0)
0*
0+
0,
0.
0/
00
01
03
04
1:
1<
1?
1@
#85330
1!
1"
1#
1$
1%
1&
1'
1(
1)
1*
0-
11
13
14
15
16
0:
0<
0?
0@
#86540
0!
0"
0#
0$
1.
01
03
04
05
17
1;
1<
1=
1>
1?
1@
#86550
1$
0%
0&
0'
0)
0*
1,
1-
0.
11
13
14
06
07
18
19
1:
0;
0<
0=
#86890
1!
1"
1#
0$
1'
0(
1+
0,
0-
01
03
04
17
08
09
0:
0>
0@
#86900
0"
0#
1$
1%
1&
1(
1)
1*
1,
1-
1.
1/
02
16
18
19
1:
1;
0?
#87410
0!
0$
0%
0&
0'
0(
0)
0*
0+
0,
0-
0/
13
06
07
08
09
0:
1=
1@
#87420
1!
1"
1#
1$
1%
1&
1'
1(
1)
1*
1+
0.
12
14
15
16
17
0;
0=
0@
#87930
0!
0"
0#
0$
0%
0&
0'
0(
0)
1,
1-
1.
1/
02
03
04
05
07
1;
1<
1=
1>
#87940
1!
0*
0+
0,
0-
0.
0/
06
0;
0<
0=
0>
1@
